…
## Cross validation using `modelr`

``` r
cv_df = 
  crossv_mc(nonlin_df, 100)
```

What is happening here…

``` r
cv_df %>% pull(train) %>% .[[1]] %>% as_tibble()
```

    ## # A tibble: 79 x 3
    ##       id      x      y
    ##    <int>  <dbl>  <dbl>
    ##  1     2 0.846  -2.05 
    ##  2     4 0.474   0.868
    ##  3     6 0.643  -0.627
    ##  4     7 0.0500  0.362
    ##  5     8 0.201   1.11 
    ##  6     9 0.500   0.392
    ##  7    10 0.106   0.844
    ##  8    11 0.229   1.05 
    ##  9    12 0.471   0.636
    ## 10    13 0.118   0.365
    ## # … with 69 more rows

``` r
cv_df %>% pull(test) %>% .[[1]] %>% as_tibble()
```

    ## # A tibble: 21 x 3
    ##       id      x      y
    ##    <int>  <dbl>  <dbl>
    ##  1     1 0.898  -2.78 
    ##  2     3 0.941  -3.11 
    ##  3     5 0.568   0.194
    ##  4    23 0.718  -0.303
    ##  5    27 0.319   1.28 
    ##  6    30 0.197   1.41 
    ##  7    32 0.189   0.531
    ##  8    33 0.602   0.411
    ##  9    35 0.0377  0.264
    ## 10    37 0.629  -0.250
    ## # … with 11 more rows
…
Let’s try to fit models and get RMSEs for them.

``` r
cv_df %>% 
  mutate(
    linear_mod = map(.x = train, ~lm(y ~ x, data = .x))
  )
```

    ## # A tibble: 100 x 4
    ##    train             test              .id   linear_mod
    ##    <list>            <list>            <chr> <list>    
    ##  1 <tibble [79 × 3]> <tibble [21 × 3]> 001   <lm>      
    ##  2 <tibble [79 × 3]> <tibble [21 × 3]> 002   <lm>      
    ##  3 <tibble [79 × 3]> <tibble [21 × 3]> 003   <lm>      
    ##  4 <tibble [79 × 3]> <tibble [21 × 3]> 004   <lm>      
    ##  5 <tibble [79 × 3]> <tibble [21 × 3]> 005   <lm>      
    ##  6 <tibble [79 × 3]> <tibble [21 × 3]> 006   <lm>      
    ##  7 <tibble [79 × 3]> <tibble [21 × 3]> 007   <lm>      
    ##  8 <tibble [79 × 3]> <tibble [21 × 3]> 008   <lm>      
    ##  9 <tibble [79 × 3]> <tibble [21 × 3]> 009   <lm>      
    ## 10 <tibble [79 × 3]> <tibble [21 × 3]> 010   <lm>      
    ## # … with 90 more rows
…
